ActsPixelClusterizationAlg                                        INFO Clusterization statistics
|----------|------------|
| RDOs     |    3423993 |
| Clusters |    1165578 |
|----------|------------|
ActsStripClusterizationAlg                                        INFO Clusterization statistics
|----------|------------|
| RDOs     |    1345365 |
| Clusters |    1081478 |
|----------|------------|
ActsHgtdClusterizationAlg                                         INFO Clusterization statistics
|----------|------------|
| RDOs     |     341404 |
| Clusters |     341404 |
|----------|------------|
ActsPixelSpacePointFormationAlg                                   INFO Space Point Formation statistics
|--------------|------------|
| Clusters     |    1165578 |
| Space Points |    1165578 |
|--------------|------------|
ActsStripSpacePointFormationAlg                                   INFO Space Point Formation statistics
|----------------------|------------|
| Clusters             |    1081478 |
| Space Points         |     325456 |
| Overlap Space Points |     101370 |
|----------------------|------------|
ActsPixelSeedingAlg                                               INFO Seed statistics
|-------------|------------|
| Spacepoints |    1165578 |
| Seeds       |     123542 |
|-------------|------------|
ActsStripSeedingAlg                                               INFO Seed statistics
|-------------|------------|
| Spacepoints |     426826 |
| Seeds       |      25844 |
|-------------|------------|
ActsTrackFindingAlg                                               INFO statistics
|-----------------------------------|------------|------------|------------|
|                           All eta | PPP        | SSS        | ALL        |
|-----------------------------------|------------|------------|------------|
| Input seeds                       |     123542 |      25844 |     149386 |
| No track parameters               |          0 |          0 |          0 |
| Used   seeds                      |      77648 |      16354 |      94002 |
| Cannot find track                 |      62903 |      12460 |      75363 |
| Duplicate seeds                   |      45894 |       9490 |      55384 |
| Initial param estimation failed   |          0 |          0 |          0 |
| CKF tracks                        |      14745 |       3894 |      18639 |
| Rejected refined parameters       |          0 |          0 |          0 |
| selected tracks                   |      13305 |        818 |      14123 |
| Stopped tracks reaching max holes |      60528 |      11942 |      72470 |
| Seeds with more than one branch   |          0 |          0 |          0 |
| Tracks failing second CKF         |          8 |        195 |        203 |
| Stopped tracks below pT cut       |       2375 |        518 |       2893 |
| Stopped tracks above max eta      |          0 |          0 |          0 |
| Total shared hits                 |      92610 |      18299 |     110909 |
|-----------------------------------|------------|------------|------------|
ActsTrackFindingAlg                                               INFO Ratios
|------------------------------------------|------------|------------|------------|
|                                          | PPP        | SSS        | ALL        |
|------------------------------------------|------------|------------|------------|
| failed / seeds                           |   0.509163 |   0.482124 |   0.504485 |
| duplication / seeds                      |   0.371485 |   0.367203 |   0.370744 |
| Rejected refined params / seeds          |          0 |          0 |          0 |
| selected / CKF tracks                    |    0.90234 |   0.210067 |   0.757712 |
| selected tracks / used seeds             |    0.17135 |  0.0500183 |   0.150241 |
| branched tracks / used seeds             |          0 |          0 |          0 |
| no 2nd CKF / CKF tracks                  | 0.000542557 |   0.050077 |  0.0108911 |
| shared hits / CKF tracks                 |    6.28077 |    4.69928 |    5.95037 |
|------------------------------------------|------------|------------|------------|
| selected / CKF tracks           0.0- 0.5 |    0.88985 |   0.115681 |   0.708434 |
|                                 0.5- 1.0 |   0.910283 |   0.244318 |   0.732423 |
|                                 1.0- 1.5 |   0.884349 |   0.222798 |   0.695007 |
|                                 1.5- 2.0 |   0.792257 |   0.216752 |   0.547105 |
|                                 2.0- 2.5 |   0.942365 |   0.212355 |   0.695695 |
|                                 2.5- 3.0 |   0.882259 |          0 |   0.881905 |
|                                 3.0- 3.5 |   0.936605 |          0 |   0.936605 |
|                                 3.5-+inf |   0.961572 |          0 |   0.961572 |
|------------------------------------------|------------|------------|------------|
ActsPrdAssociationAlg                                             INFO Prd Map statistics
|-----------------------|------------|
| N. Tracks             |       9574 |
| N. Pixel Measurements |     102828 |
| N. Strip Measurements |      40132 |
| N. Hgtd Measurements  |         23 |
|-----------------------|------------|
ActsLargeRadiusPixelClusterPreparationAlg                         INFO Data Prep statistics
|---------|------------|
| Inputs  |    1165578 |
| Outputs |    1062816 |
|---------|------------|
ActsLargeRadiusStripClusterPreparationAlg                         INFO Data Prep statistics
|---------|------------|
| Inputs  |    1081478 |
| Outputs |    1041381 |
|---------|------------|
ActsLargeRadiusHgtdClusterPreparationAlg                          INFO Data Prep statistics
|---------|------------|
| Inputs  |     341404 |
| Outputs |     341381 |
|---------|------------|
ActsLargeRadiusStripSpacePointPreparationAlg                      INFO Data Prep statistics
|---------|------------|
| Inputs  |     325456 |
| Outputs |     303547 |
|---------|------------|
ActsLargeRadiusStripOv...pSpacePointPreparationAlg                INFO Data Prep statistics
|---------|------------|
| Inputs  |     101370 |
| Outputs |      94561 |
|---------|------------|
ActsLargeRadiusStripSeedingAlg                                    INFO Seed statistics
|-------------|------------|
| Spacepoints |     398108 |
| Seeds       |      10143 |
|-------------|------------|
ActsLargeRadiusTrackFindingAlg                                    INFO statistics
|-----------------------------------|------------|------------|
|                           All eta | SSS        | ALL        |
|-----------------------------------|------------|------------|
| Input seeds                       |      10143 |      10143 |
| No track parameters               |          0 |          0 |
| Used   seeds                      |       9924 |       9924 |
| Cannot find track                 |       8953 |       8953 |
| Duplicate seeds                   |        219 |        219 |
| Initial param estimation failed   |          0 |          0 |
| CKF tracks                        |        971 |        971 |
| Rejected refined parameters       |          0 |          0 |
| selected tracks                   |        133 |        133 |
| Stopped tracks reaching max holes |       6983 |       6983 |
| Seeds with more than one branch   |          0 |          0 |
| Tracks failing second CKF         |         30 |         30 |
| Stopped tracks below pT cut       |       1970 |       1970 |
| Stopped tracks above max eta      |          0 |          0 |
| Total shared hits                 |        776 |        776 |
|-----------------------------------|------------|------------|
ActsLargeRadiusTrackFindingAlg                                    INFO Ratios
|------------------------------------------|------------|------------|
|                                          | SSS        | ALL        |
|------------------------------------------|------------|------------|
| failed / seeds                           |   0.882678 |   0.882678 |
| duplication / seeds                      |  0.0215912 |  0.0215912 |
| Rejected refined params / seeds          |          0 |          0 |
| selected / CKF tracks                    |   0.136972 |   0.136972 |
| selected tracks / used seeds             |  0.0134019 |  0.0134019 |
| branched tracks / used seeds             |          0 |          0 |
| no 2nd CKF / CKF tracks                  |   0.030896 |   0.030896 |
| shared hits / CKF tracks                 |   0.799176 |   0.799176 |
|------------------------------------------|------------|------------|
| selected / CKF tracks           0.0- 0.5 |   0.169014 |   0.169014 |
|                                 0.5- 1.0 |   0.228916 |   0.228916 |
|                                 1.0- 1.5 |   0.212766 |   0.212766 |
|                                 1.5- 2.0 |    0.13948 |    0.13948 |
|                                 2.0- 2.5 |  0.0766667 |  0.0766667 |
|                                 2.5- 3.0 |          0 |          0 |
|                                 3.0- 3.5 |          0 |          0 |
|                                 3.5-+inf |          0 |          0 |
|------------------------------------------|------------|------------|
ActsLargeRadiusPrdAssociationAlg                                  INFO Prd Map statistics
|-----------------------|------------|
| N. Tracks             |         98 |
| N. Pixel Measurements |        486 |
| N. Strip Measurements |        941 |
| N. Hgtd Measurements  |          1 |
|-----------------------|------------|
ActsConversionPixelClusterPreparationAlg                          INFO Data Prep statistics
|---------|------------|
| Inputs  |    1165578 |
| Outputs |      27119 |
|---------|------------|
ActsConversionStripClusterPreparationAlg                          INFO Data Prep statistics
|---------|------------|
| Inputs  |    1081478 |
| Outputs |      15520 |
|---------|------------|
ActsConversionHgtdClusterPreparationAlg                           INFO Data Prep statistics
|---------|------------|
| Inputs  |     341404 |
| Outputs |     341380 |
|---------|------------|
ActsConversionStripSpacePointPreparationAlg                       INFO Data Prep statistics
|---------|------------|
| Inputs  |     325456 |
| Outputs |       4505 |
|---------|------------|
ActsConversionStripSeedingAlg                                     INFO Seed statistics
|-------------|------------|
| Spacepoints |       4505 |
| Seeds       |         71 |
|-------------|------------|
ActsConversionTrackFindingAlg                                     INFO statistics
|-----------------------------------|------------|------------|
|                           All eta | SSS        | ALL        |
|-----------------------------------|------------|------------|
| Input seeds                       |         71 |         71 |
| No track parameters               |          0 |          0 |
| Used   seeds                      |         71 |         71 |
| Cannot find track                 |         54 |         54 |
| Duplicate seeds                   |          0 |          0 |
| Initial param estimation failed   |          0 |          0 |
| CKF tracks                        |         17 |         17 |
| Rejected refined parameters       |          0 |          0 |
| selected tracks                   |          0 |          0 |
| Stopped tracks reaching max holes |         46 |         46 |
| Seeds with more than one branch   |          0 |          0 |
| Tracks failing second CKF         |          0 |          0 |
| Stopped tracks below pT cut       |          8 |          8 |
| Stopped tracks above max eta      |          0 |          0 |
| Total shared hits                 |          0 |          0 |
|-----------------------------------|------------|------------|
ActsConversionTrackFindingAlg                                     INFO Ratios
|------------------------------------------|------------|------------|
|                                          | SSS        | ALL        |
|------------------------------------------|------------|------------|
| failed / seeds                           |   0.760563 |   0.760563 |
| duplication / seeds                      |          0 |          0 |
| Rejected refined params / seeds          |          0 |          0 |
| selected / CKF tracks                    |          0 |          0 |
| selected tracks / used seeds             |          0 |          0 |
| branched tracks / used seeds             |          0 |          0 |
| no 2nd CKF / CKF tracks                  |          0 |          0 |
| shared hits / CKF tracks                 |          0 |          0 |
|------------------------------------------|------------|------------|
| selected / CKF tracks           0.0- 0.5 |          0 |          0 |
|                                 0.5- 1.0 |          0 |          0 |
|                                 1.0- 1.5 |          0 |          0 |
|                                 1.5- 2.0 |          0 |          0 |
|                                 2.0- 2.5 |          0 |          0 |
|                                 2.5- 3.0 |          0 |          0 |
|                                 3.0- 3.5 |          0 |          0 |
|                                 3.5-+inf |          0 |          0 |
|------------------------------------------|------------|------------|
ActsConversionPrdAssociationAlg                                   INFO Prd Map statistics
|-----------------------|------------|
| N. Tracks             |          0 |
| N. Pixel Measurements |          0 |
| N. Strip Measurements |          0 |
| N. Hgtd Measurements  |          0 |
|-----------------------|------------|
ActsLowPtPixelClusterPreparationAlg                               INFO Data Prep statistics
|---------|------------|
| Inputs  |    1165578 |
| Outputs |    1062331 |
|---------|------------|
ActsLowPtStripClusterPreparationAlg                               INFO Data Prep statistics
|---------|------------|
| Inputs  |    1081478 |
| Outputs |    1040440 |
|---------|------------|
ActsLowPtHgtdClusterPreparationAlg                                INFO Data Prep statistics
|---------|------------|
| Inputs  |     341404 |
| Outputs |     341380 |
|---------|------------|
ActsLowPtPixelSpacePointPreparationAlg                            INFO Data Prep statistics
|---------|------------|
| Inputs  |    1165578 |
| Outputs |    1062331 |
|---------|------------|
ActsLowPtStripSpacePointPreparationAlg                            INFO Data Prep statistics
|---------|------------|
| Inputs  |     325456 |
| Outputs |     303048 |
|---------|------------|
ActsLowPtStripOverlapSpacePointPreparationAlg                     INFO Data Prep statistics
|---------|------------|
| Inputs  |     101370 |
| Outputs |      94385 |
|---------|------------|
ActsLowPtPixelSeedingAlg                                          INFO Seed statistics
|-------------|------------|
| Spacepoints |    1062331 |
| Seeds       |      46683 |
|-------------|------------|
ActsLowPtStripSeedingAlg                                          INFO Seed statistics
|-------------|------------|
| Spacepoints |     397433 |
| Seeds       |       9557 |
|-------------|------------|
ActsLowPtTrackFindingAlg                                          INFO statistics
|-----------------------------------|------------|------------|------------|
|                           All eta | PPP        | SSS        | ALL        |
|-----------------------------------|------------|------------|------------|
| Input seeds                       |      46683 |       9557 |      56240 |
| No track parameters               |          0 |          0 |          0 |
| Used   seeds                      |      45871 |       9190 |      55061 |
| Cannot find track                 |      44735 |       7441 |      52176 |
| Duplicate seeds                   |        812 |        367 |       1179 |
| Initial param estimation failed   |          0 |          0 |          0 |
| CKF tracks                        |       1136 |       1749 |       2885 |
| Rejected refined parameters       |          0 |          0 |          0 |
| selected tracks                   |        623 |         44 |        667 |
| Stopped tracks reaching max holes |      44281 |       7398 |      51679 |
| Seeds with more than one branch   |          0 |          0 |          0 |
| Tracks failing second CKF         |          0 |         69 |         69 |
| Stopped tracks below pT cut       |        454 |         43 |        497 |
| Stopped tracks above max eta      |          0 |          0 |          0 |
| Total shared hits                 |       3793 |        461 |       4254 |
|-----------------------------------|------------|------------|------------|
ActsLowPtTrackFindingAlg                                          INFO Ratios
|------------------------------------------|------------|------------|------------|
|                                          | PPP        | SSS        | ALL        |
|------------------------------------------|------------|------------|------------|
| failed / seeds                           |   0.958272 |   0.778592 |   0.927738 |
| duplication / seeds                      |  0.0173939 |  0.0384012 |  0.0209637 |
| Rejected refined params / seeds          |          0 |          0 |          0 |
| selected / CKF tracks                    |   0.548415 |  0.0251572 |   0.231196 |
| selected tracks / used seeds             |  0.0135816 | 0.00478781 |  0.0121138 |
| branched tracks / used seeds             |          0 |          0 |          0 |
| no 2nd CKF / CKF tracks                  |          0 |  0.0394511 |  0.0239168 |
| shared hits / CKF tracks                 |    3.33891 |   0.263579 |    1.47452 |
|------------------------------------------|------------|------------|------------|
| selected / CKF tracks           0.0- 0.5 |   0.825688 |          0 |   0.358566 |
|                                 0.5- 1.0 |   0.955556 |  0.0217391 |   0.390351 |
|                                 1.0- 1.5 |   0.957447 |  0.0769231 |     0.4613 |
|                                 1.5- 2.0 |    0.92236 |  0.0376812 |    0.31917 |
|                                 2.0- 2.5 |  0.0694444 | 0.00167785 | 0.00898204 |
|                                 2.5- 3.0 |  0.0174672 |          0 |  0.0173913 |
|                                 3.0- 3.5 | 0.00952381 |          0 | 0.00952381 |
|                                 3.5-+inf |  0.0735294 |          0 |  0.0735294 |
|------------------------------------------|------------|------------|------------|
ActsLowPtPrdAssociationAlg                                        INFO Prd Map statistics
|-----------------------|------------|
| N. Tracks             |        511 |
| N. Pixel Measurements |       3845 |
| N. Strip Measurements |       4245 |
| N. Hgtd Measurements  |          0 |
|-----------------------|------------|
